고등학생 통학 데이터 분석 • bitData
…
데이터

bitData::school
#> Loading required package: lubridate
#> 
#> Attaching package: 'lubridate'
#> The following objects are masked from 'package:base':
#> 
#>     date, intersect, setdiff, union
#> # A tibble: 2,752 × 8
#>    요일  통학방식 출발시간  도착시간  지각여부  소요시간   위도  경도
#>    <chr> <chr>    <Period>  <Period>  <chr>     <Period>  <dbl> <dbl>
#>  1 금    도보     7H 35M 0S 7H 40M 0S 정상 등교 5M 0S      37.2  127.
#>  2 화    도보     8H 27M 0S 8H 35M 0S 정상 등교 8M 0S      37.2  127.
#>  3 월    도보     8H 30M 0S 8H 36M 0S 정상 등교 6M 0S      37.2  127.
#>  4 목    도보     8H 35M 0S 8H 42M 0S 정상 등교 7M 0S      37.2  127.
#>  5 금    도보     8H 35M 0S 8H 42M 0S 정상 등교 7M 0S      37.2  127.
#>  6 화    도보     8H 40M 0S 8H 45M 0S 정상 등교 5M 0S      37.2  127.
#>  7 금    도보     7H 49M 0S 8H 46M 0S 정상 등교 1H -3M 0S  37.2  127.
#>  8 수    도보     8H 40M 0S 8H 47M 0S 정상 등교 7M 0S      37.2  127.
#>  9 화    도보     8H 40M 0S 8H 47M 0S 정상 등교 7M 0S      37.2  127.
#> 10 월    도보     8H 35M 0S 8H 47M 0S 정상 등교 12M 0S     37.2  127.
#> # … with 2,742 more rows
…
